<svg xmlns="http://www.w3.org/2000/svg" width="85.752" height="13.239" viewBox="0 0 85.752 13.239">
    <defs>
        <style>
            .cls-1{fill:#fff}
        </style>
    </defs>
    <g id="Group_1575" data-name="Group 1575">
        <g id="Group_1574" data-name="Group 1574">
            <path id="Path_4592" d="M201.847 311.934h9.234v5.54h-5.54v-1.847h3.694v-1.847h-5.54v5.54h9.234v-9.234H200v12.927h12.917v-1.847h-11.07z" class="cls-1" data-name="Path 4592" transform="translate(-200 -310.087)"/>
            <path id="Path_4593" d="M255.853 323.26l-3.772-10.86h-.071q.151 2.42.151 4.537v6.326h-1.931v-13.011h3l3.612 10.348h.053l3.719-10.348h3.007v13.008h-2.046v-6.433q0-.97.049-2.527t.084-1.887h-.071l-3.907 10.847z" class="cls-1" data-name="Path 4593" transform="translate(-233.993 -310.199)"/>
            <path id="Path_4594" d="M312.205 310.252v8.417a4.991 4.991 0 0 1-.618 2.522 4.119 4.119 0 0 1-1.789 1.664 6.21 6.21 0 0 1-2.8.583 5.235 5.235 0 0 1-3.764-1.281 4.637 4.637 0 0 1-1.343-3.523v-8.381h2.135v8.23a3.289 3.289 0 0 0 .747 2.376 3.079 3.079 0 0 0 2.3.765q3.007 0 3.008-3.159v-8.212z" class="cls-1" data-name="Path 4594" transform="translate(-268.956 -310.199)"/>
            <path id="Path_4595" d="M349.711 323.26l-3.772-10.86h-.071q.151 2.42.151 4.537v6.326h-1.931v-13.011h3L350.7 320.6h.053l3.719-10.348h3.007v13.008h-2.046v-6.433q0-.97.049-2.527t.084-1.887h-.071l-3.906 10.846z" class="cls-1" data-name="Path 4595" transform="translate(-297.511 -310.199)"/>
            <path id="Path_4596" d="M396.109 310.252h3.862a7.327 7.327 0 0 1 3.884.783 2.741 2.741 0 0 1 1.2 2.473 3 3 0 0 1-.587 1.895 2.624 2.624 0 0 1-1.69.952v.089a3.356 3.356 0 0 1 2.015 1.019 3.081 3.081 0 0 1 .645 2.059 3.338 3.338 0 0 1-1.223 2.745 5.261 5.261 0 0 1-3.4.992h-4.7zm2.126 5.374h2.047a3.5 3.5 0 0 0 1.949-.423 1.618 1.618 0 0 0 .614-1.437 1.44 1.44 0 0 0-.663-1.326 4.144 4.144 0 0 0-2.1-.409h-1.842zm0 1.726v4.12h2.26a3.325 3.325 0 0 0 2.016-.512 1.889 1.889 0 0 0 .68-1.615 1.714 1.714 0 0 0-.694-1.5 3.678 3.678 0 0 0-2.109-.49z" class="cls-1" data-name="Path 4596" transform="translate(-332.716 -310.199)"/>
            <path id="Path_4597" d="M437.8 323.148l-1.3-3.612h-4.974l-1.272 3.612h-2.244l4.867-13.061h2.314l4.867 13.061zm-1.859-5.445l-1.219-3.541q-.133-.356-.369-1.121t-.325-1.121a19.93 19.93 0 0 1-.7 2.393l-1.174 3.39z" class="cls-1" data-name="Path 4597" transform="translate(-354.305 -310.087)"/>
        </g>
    </g>
</svg>
