<svg
                xmlns='http://www.w3.org/2000/svg'
                width='18.997'
                height='18.997'
                viewBox='0 0 18.997 18.997'>
                <path
                  id='Path_6253'
                  fill='#ff7571'
                  d='M100.134 97.53l6.354-6.354a1.842 1.842 0 1 0-2.6-2.6l-6.358 6.349-6.355-6.355a1.842 1.842 0 0 0-2.6 2.6l6.354 6.354-6.355 6.355a1.842 1.842 0 0 0 2.6 2.6l6.355-6.355 6.355 6.355a1.842 1.842 0 0 0 2.6-2.6z'
                  data-name='Path 6253'
                  transform='translate(-88.031 -88.031)'
                />
              </svg>