<svg xmlns="http://www.w3.org/2000/svg" width="64" height="64" viewBox="0 0 64 64">
    <defs>
        <style>
            .prefix__cls-2{fill:#ff7571}
        </style>
    </defs>
    <g id="prefix__Group_3823" data-name="Group 3823" transform="translate(-263 -1145)">
        <rect id="prefix__Rectangle_988" width="64" height="64" data-name="Rectangle 988" rx="5" transform="translate(263 1145)" style="fill:#fff"/>
        <g id="prefix__Group_2722" data-name="Group 2722" transform="translate(-419.714 286)">
            <g id="prefix__Group_2721" data-name="Group 2721" transform="translate(-2814.35 1042.627)">
                <path id="prefix__Path_5448" d="M3518.251-160.331l3.435-3.436c.607.4 1.244.8 1.852 1.241a.748.748 0 0 0 .919.068 11.218 11.218 0 0 1 1.609-.655.433.433 0 0 0 .325-.374c.142-.739.3-1.474.437-2.215.038-.212.127-.252.319-.252q2.164.009 4.329 0c.2 0 .273.062.31.263.132.741.294 1.477.433 2.216a.417.417 0 0 0 .3.356c.631.241 1.256.5 1.875.775a.391.391 0 0 0 .439-.027c.692-.473 1.394-.932 2.069-1.38l3.44 3.447c-.392.591-.792 1.239-1.242 1.852a.706.706 0 0 0-.06.862 12.307 12.307 0 0 1 .656 1.609.471.471 0 0 0 .414.363c.8.148 1.6.316 2.416.479.006.111.017.206.017.3 0 1.411-.007 2.822.008 4.232 0 .26-.081.349-.326.392-.709.125-1.413.282-2.122.411a.459.459 0 0 0-.4.34c-.233.623-.5 1.236-.764 1.844a.391.391 0 0 0 .026.439c.473.692.932 1.393 1.377 2.063l-3.446 3.445c-.57-.379-1.2-.769-1.794-1.206a.785.785 0 0 0-.976-.071 10.744 10.744 0 0 1-1.581.639.434.434 0 0 0-.331.372q-.211 1.125-.452 2.245c-.018.084-.13.212-.2.213-1.549.012-3.1.009-4.681.009-.142-.694-.315-1.37-.409-2.058a.9.9 0 0 0-.75-.9 8.152 8.152 0 0 1-1.479-.632.428.428 0 0 0-.5.028c-.682.469-1.375.921-2.042 1.364l-3.439-3.448c.391-.589.792-1.236 1.24-1.85a.7.7 0 0 0 .062-.861 12.418 12.418 0 0 1-.658-1.609.468.468 0 0 0-.409-.369c-.741-.132-1.476-.3-2.216-.433-.178-.033-.227-.1-.226-.274q.008-2.2 0-4.394c0-.169.046-.242.225-.275.75-.139 1.5-.3 2.247-.444a.439.439 0 0 0 .37-.329c.234-.622.5-1.235.767-1.843a.394.394 0 0 0-.027-.44c-.464-.693-.923-1.394-1.386-2.092zm11.037-.578a8.224 8.224 0 0 0-8.178 8.225 8.226 8.226 0 0 0 8.168 8.169 8.216 8.216 0 0 0 8.226-8.273 8.228 8.228 0 0 0-8.216-8.121z" class="prefix__cls-2" data-name="Path 5448"/>
                <path id="prefix__Path_5449" d="M3618.3-70.818a7.136 7.136 0 0 1 7.077 7.115 7.132 7.132 0 0 1-7.178 7.078 7.139 7.139 0 0 1-7.014-7.147 7.14 7.14 0 0 1 7.115-7.046zm-4.611 9.922a3.068 3.068 0 0 0 .377-.348 1.161 1.161 0 0 0 .136-.359c.207-.59.206-.591.837-.588.29 0 .652-.1.85.042s.26.513.371.787c.159.391.416.544.738.427a.563.563 0 0 0 .3-.8c-.527-1.453-1.062-2.9-1.586-4.357a.572.572 0 0 0-.556-.452.573.573 0 0 0-.551.46c-.2.589-.411 1.176-.617 1.763-.307.871-.618 1.74-.918 2.613a.582.582 0 0 0 .617.808zm4.473-2.825v2.193a.57.57 0 0 0 .547.632.556.556 0 0 0 .551-.618c.005-.376 0-.752 0-1.129 0-.611-.065-.519.534-.526.086 0 .172 0 .257-.012a1.667 1.667 0 0 0 1.531-1.592 1.631 1.631 0 0 0-1.4-1.733 9.766 9.766 0 0 0-1.318-.042c-.506 0-.705.2-.707.7.003.708.004 1.418.003 2.127zm5.391.032c0-.752.006-1.5 0-2.256a.553.553 0 0 0-.539-.6.547.547 0 0 0-.556.585c-.008 1.493-.015 2.987.009 4.48a.732.732 0 0 0 .3.513c.354.227.773-.065.782-.529.012-.731.002-1.462.002-2.193z" class="prefix__cls-2" data-name="Path 5449" transform="translate(-88.973 -88.989)"/>
            </g>
            <circle id="prefix__Ellipse_590" cx="6" cy="6" r="6" class="prefix__cls-2" data-name="Ellipse 590" transform="translate(709 884)"/>
        </g>
    </g>
</svg>
