<svg xmlns="http://www.w3.org/2000/svg" width="64" height="64" viewBox="0 0 64 64">
    <defs>
        <style>
            .prefix__cls-2{fill:#ecaf20}
        </style>
    </defs>
    <g id="prefix__Group_3824" data-name="Group 3824" transform="translate(-770 -798)">
        <rect id="prefix__Rectangle_989" width="64" height="64" data-name="Rectangle 989" rx="5" transform="translate(770 798)" style="fill:#fff"/>
        <g id="prefix__Group_2746" data-name="Group 2746" transform="translate(-222 -60)">
            <path id="prefix__Rectangle_972" d="M0 0H6V19H0z" class="prefix__cls-2" data-name="Rectangle 972" transform="translate(1013 881)"/>
            <path id="prefix__Rectangle_974" d="M0 0H6V13H0z" class="prefix__cls-2" data-name="Rectangle 974" transform="translate(1029 887)"/>
            <path id="prefix__Rectangle_973" d="M0 0H6V25H0z" class="prefix__cls-2" data-name="Rectangle 973" transform="translate(1021 875)"/>
        </g>
    </g>
</svg>
